2020-01-01  Pizza
2020-01-01  Ice Cream
2020-01-02  Waffle
2020-01-03  PiZZa
2020-03-05  Waffle
2020-03-05  pizza
2020-03-06  pizza
2020-03-06  Peanuts
2020-03-06  PIZZA
2020-03-06  Beef Jerky
2020-03-07  Popcorn
2020-03-07  pizza
2020-03-08  pizza